%YAML 1.1
%TAG !u! tag:unity3d.com,2011:
--- !u!114 &11400000
MonoBehaviour:
  m_ObjectHideFlags: 0
  m_CorrespondingSourceObject: {fileID: 0}
  m_PrefabInstance: {fileID: 0}
  m_PrefabAsset: {fileID: 0}
  m_GameObject: {fileID: 0}
  m_Enabled: 1
  m_EditorHideFlags: 0
  m_Script: {fileID: 11500000, guid: 0f262b0800d34e5ea1fad4bd5958aed5, type: 3}
  m_Name: Music Data
  m_EditorClassIdentifier: 
  backroundClips:
  - {fileID: 8300000, guid: 510e0df740abc5f48b4aac4bf18f83fd, type: 3}
  - {fileID: 8300000, guid: a0ce1c8fbac4d8144b0a8018897f1c34, type: 3}
  - {fileID: 8300000, guid: 08b527a0ac6561e40915a8b19a9ebf63, type: 3}
  - {fileID: 8300000, guid: 6d70c6c27c351c64f8a0c0adc11f0c1f, type: 3}
  effects:
  - type: 0
    clips:
    - {fileID: 8300000, guid: 9bf27a9f2c437a8459ef9dbbf6eca7af, type: 3}
  - type: 1
    clips:
    - {fileID: 8300000, guid: 9bf27a9f2c437a8459ef9dbbf6eca7af, type: 3}
  - type: 2
    clips:
    - {fileID: 8300000, guid: d4007067d30a702478f8de23ab74795f, type: 3}
  - type: 3
    clips:
    - {fileID: 8300000, guid: dca3084cb66e8824bab682c584bec504, type: 3}
    - {fileID: 8300000, guid: 09e2ed66f49ed2540bb97e0122b9d459, type: 3}
  - type: 4
    clips:
    - {fileID: 8300000, guid: b352e9528b4467a4eaaeb448ee42ca96, type: 3}
  - type: 5
    clips:
    - {fileID: 8300000, guid: 64d78bb798468a24bb89b9de0dfc408f, type: 3}
